{"page":2 ,"total_results":1314,"total_pages":2,"results":[{"vote_count":156,"id":430354,"video":false,"vote_average":5.3,"title":"Bushwick","popularity":12.055,"poster_path":"\/9fGjmzxdiKWsrlY3syrm2aXeTq7.jpg","original_language":"en","original_title":"Bushwick","genre_ids":[53,28],"backdrop_path":"\/qZM7tkRU49IlKu4in8J4unlTzpX.jpg","adult":false,"overview":"When an unknown military force invades Bushwick, a Brooklyn neighborhood, young student Lucy and war veteran Stupe must rely on each other to escape and survive.","release_date":"2017-07-30"},{"vote_count":301,"id":370663,"video":false,"vote_average":6.1,"title":"Below Her Mouth","popularity":11.989,"poster_path":"\/nTGbq37hYLuNy7YgMg0gVLma0NS.jpg","original_language":"en","original_title":"Below Her Mouth","genre_ids":[18,10749],"backdrop_path":"\/okSVtwaS8DqLHGe1QQgREf2haCy.jpg","adult":false,"overview":"An unexpected affair quickly escalates into a heart-stopping reality for two women whose passionate connection changes their lives forever.","release_date":"2017-02-10"},{"vote_count":2313,"id":935,"video":false,"vote_average":8.1,"title":"Dr. Strangelove or: How I Learned to Stop Worrying and Love the Bomb","popularity":11.661,"poster_path":"\/tviJ68Wj4glQk3CPMvdvExYHxX.jpg","original_language":"en","original_title":"Dr. Strangelove or: How I Learned to Stop Worrying and Love the Bomb","genre_ids":[18,35,10752],"backdrop_path":"\/7Gr3IkGqfl00W3oWbfopYSEL6Yt.jpg","adult":false,"overview":"After the insane General Jack D. Ripper initiates a nuclear strike on the Soviet Union, a war room full of politicians, generals and a Russian diplomat all frantically try to stop the nuclear strike.","release_date":"1964-01-29"},{"vote_count":1650,"id":400928,"video":false,"vote_average":7.9,"title":"Gifted","popularity":11.403,"poster_path":"\/9Ts7Vc4wLlpI9oox9mkVUE1tBHy.jpg","original_language":"en","original_title":"Gifted","genre_ids":[18,10751,35],"backdrop_path":"\/gYtXT7fJNBRZBbBulO11DoRveLT.jpg","adult":false,"overview":"Frank, a single man raising his child prodigy niece Mary, is drawn into a custody battle with his mother.","release_date":"2017-04-12"},{"vote_count":1755,"id":340837,"video":false,"vote_average":6.2,"title":"A Cure for Wellness","popularity":11.4,"poster_path":"\/d4fXuJS3zZcAZfz2HYDtnwqtnwn.jpg","original_language":"en","original_title":"A Cure for Wellness","genre_ids":[27,9648,878,53],"backdrop_path":"\/uXx9wjfJEzLlfqB8GW67SYBrhVT.jpg","adult":false,"overview":"An ambitious young executive is sent to retrieve his company's CEO from an idyllic but mysterious \"wellness center\" at a remote location in the Swiss Alps but soon suspects that the spa's miraculous treatments are not what they seem.","release_date":"2017-02-15"},{"vote_count":916,"id":339877,"video":false,"vote_average":8.3,"title":"Loving Vincent","popularity":11.067,"poster_path":"\/qlrhwUDe7YOZujAYanK6ij2vbY5.jpg","original_language":"en","original_title":"Loving Vincent","genre_ids":[16,18,9648],"backdrop_path":"\/adFgBkl35kdI0bSrWZO2xury1JB.jpg","adult":false,"overview":"The film brings the paintings of Vincent van Gogh to life to tell his remarkable story. Every one of the 65,000 frames of the film is an oil-painting hand-painted by 125 professional oil-painters who travelled from all across the world to the Loving Vincent studios in Poland and Greece to be a part of the production. As remarkable as Vincent’s brilliant paintings are his passionate and ill-fated life and mysterious death.","release_date":"2017-06-22"}]}