{"page":2,"total_results":1314,"total_pages":66,"results":[{"vote_count":2101,"id":260514,"video":false,"vote_average":6.8,"title":"Cars 3","popularity":16.44,"poster_path":"\/fyy1nDC8wm553FCiBDojkJmKLCs.jpg","original_language":"en","original_title":"Cars 3","genre_ids":[12,16,35,10751],"backdrop_path":"\/36h3Sw4y4COqMeNg31ST0h5xRae.jpg","adult":false,"overview":"Blindsided by a new generation of blazing-fast racers, the legendary Lightning McQueen is suddenly pushed out of the sport he loves. To get back in the game, he will need the help of an eager young race technician with her own plan to win, inspiration from the late Fabulous Hudson Hornet, and a few unexpected turns. Proving that #95 isn't through yet will test the heart of a champion on Piston Cup Racing’s biggest stage!","release_date":"2017-06-15"},{"vote_count":3809,"id":282035,"video":false,"vote_average":5.4,"title":"The Mummy","popularity":16.256,"poster_path":"\/zxkY8byBnCsXodEYpK8tmwEGXBI.jpg","original_language":"en","original_title":"The Mummy","genre_ids":[14,53,28,12,27],"backdrop_path":"\/5TC6gKrmtnoGE3c3lHeNPevkn4Z.jpg","adult":false,"overview":"Though safely entombed in a crypt deep beneath the unforgiving desert, an ancient queen whose destiny was unjustly taken from her is awakened in our current day, bringing with her malevolence grown over millennia, and terrors that defy human comprehension.","release_date":"2017-06-06"},{"vote_count":2311,"id":305470,"video":false,"vote_average":6.2,"title":"Power Rangers","popularity":16.242,"poster_path":"\/iRAZIEgfB9N0BObV0QI61Nxh92h.jpg","original_language":"en","original_title":"Power Rangers","genre_ids":[28,12,878],"backdrop_path":"\/gfTQaH7h09IaSZw9ubZgP2c7syr.jpg","adult":false,"overview":"Saban's Power Rangers follows five ordinary teens who must become something extraordinary when they learn that their small town of Angel Grove — and the world — is on the verge of being obliterated by an alien threat. Chosen by destiny, our heroes quickly discover they are the only ones who can save the planet. But to do so, they will have to overcome their real-life issues and before it’s too late, band together as the Power Rangers.","release_date":"2017-03-23"},{"vote_count":1121,"id":411088,"video":false,"vote_average":8.2,"title":"The Invisible Guest","popularity":15.173,"poster_path":"\/fptnZJbLzKUHeNlYrAynbyoL5YJ.jpg","original_language":"es","original_title":"Contratiempo","genre_ids":[9648,80,53],"backdrop_path":"\/6xCeSDyXr9tC1jdBsdx3QJEQuSc.jpg","adult":false,"overview":"\"The Invisible Guest” turns on a young businessman who wakes up in a hotel room locked from the inside with the dead body of his lover next to him. He hires a prestigious lawyer, and over one night they work together to clarify what happened in a frenetic race against time.","release_date":"2016-09-22"},{"vote_count":6450,"id":61791,"video":false,"vote_average":7.2,"title":"Rise of the Planet of the Apes","popularity":15.035,"poster_path":"\/esqXMJv6PiK7GJVRwd2FA3SZUoW.jpg","original_language":"en","original_title":"Rise of the Planet of the Apes","genre_ids":[53,28,18,878],"backdrop_path":"\/oxrovtv9Yo9snk4WLM0bK0SCRES.jpg","adult":false,"overview":"Scientist Will Rodman is determined to find a cure for Alzheimer's, the disease which has slowly consumed his father. Will feels certain he is close to a breakthrough and tests his latest serum on apes, noticing dramatic increases in intelligence and brain activity in the primate subjects – especially Caesar, his pet chimpanzee.","release_date":"2011-08-03"},{"vote_count":4440,"id":315837,"video":false,"vote_average":5.9,"title":"Ghost in the Shell","popularity":14.653,"poster_path":"\/myRzRzCxdfUWjkJWgpHHZ1oGkJd.jpg","original_language":"en","original_title":"Ghost in the Shell","genre_ids":[28,878,53,18],"backdrop_path":"\/jGPSVArC0GS2VVc0aGAqGTjfFOG.jpg","adult":false,"overview":"In the near future, Major is the first of her kind: a human saved from a terrible crash, then cyber-enhanced to be a perfect soldier devoted to stopping the world's most dangerous criminals.","release_date":"2017-03-29"},{"vote_count":1987,"id":396535,"video":false,"vote_average":7.7,"title":"Train to Busan","popularity":14.389,"poster_path":"\/qWOkfCgioLEf3Km9OWva93RYWAc.jpg","original_language":"ko","original_title":"부산행","genre_ids":[28,27,53],"backdrop_path":"\/pEgo6jOOHSfdM7onIJIzcMAhPTR.jpg","adult":false,"overview":"Martial law is declared when a mysterious viral outbreak pushes Korea into a state of emergency. Those on an express train to Busan, a city that has successfully fended off the viral outbreak, must fight for their own survival…","release_date":"2016-07-20"},{"vote_count":635,"id":407448,"video":false,"vote_average":7.3,"title":"Detroit","popularity":14.307,"poster_path":"\/tmCt2hy9QoFHft3UcHwpGX2Sihl.jpg","original_language":"en","original_title":"Detroit","genre_ids":[80,18,53,36],"backdrop_path":"\/zpkWkIXEwSErbIgOlh1NkwQ6Pyj.jpg","adult":false,"overview":"A police raid in Detroit in 1967 results in one of the largest citizens' uprisings in the history of the United States.","release_date":"2017-07-28"},{"vote_count":3502,"id":395992,"video":false,"vote_average":6.3,"title":"Life","popularity":13.595,"poster_path":"\/h2mhfbEBGABSHo2vXG1ECMKAJa7.jpg","original_language":"en","original_title":"Life","genre_ids":[27,878,53,18],"backdrop_path":"\/nNh7vHHISVAaziJEqAq0P9iL52w.jpg","adult":false,"overview":"The six-member crew of the International Space Station is tasked with studying a sample from Mars that may be the first proof of extra-terrestrial life, which proves more intelligent than ever expected.","release_date":"2017-03-22"},{"vote_count":856,"id":339967,"video":false,"vote_average":6.1,"title":"Colossal","popularity":13.391,"poster_path":"\/4VOyofBd1pexblxtDZYtYIk7NI4.jpg","original_language":"en","original_title":"Colossal","genre_ids":[35,18,14,878],"backdrop_path":"\/y5qDjStKZ6y4IHQDhJGMlfZwH92.jpg","adult":false,"overview":"A woman discovers that severe catastrophic events are somehow connected to the mental breakdown from which she's suffering.","release_date":"2016-06-30"},{"vote_count":3107,"id":341013,"video":false,"vote_average":6.3,"title":"Atomic Blonde","popularity":13.195,"poster_path":"\/ApXiD6hHQ0pZLoVUuiI1NKkpDgS.jpg","original_language":"en","original_title":"Atomic Blonde","genre_ids":[28,9648,53],"backdrop_path":"\/g3hni0i9iAQ13jDGOFWavJFlojc.jpg","adult":false,"overview":"An undercover MI6 agent is sent to Berlin during the Cold War to investigate the murder of a fellow agent and recover a missing list of double agents.","release_date":"2017-07-26"},{"vote_count":466,"id":348893,"video":false,"vote_average":6.1,"title":"Boyka: Undisputed IV","popularity":13.083,"poster_path":"\/mWiqc87iTs1qujxm2Q0NRzGvWSN.jpg","original_language":"en","original_title":"Boyka: Undisputed IV","genre_ids":[53,28,80],"backdrop_path":"\/5dLLiR8IUT7T0r5HVcvRlItNWTn.jpg","adult":false,"overview":"In the fourth installment of the fighting franchise, Boyka is shooting for the big leagues when an accidental death in the ring makes him question everything he stands for. When he finds out the wife of the man he accidentally killed is in trouble, Boyka offers to fight in a series of impossible battles to free her from a life of servitude","release_date":"2016-08-01"},{"vote_count":2289,"id":339988,"video":false,"vote_average":5.5,"title":"The Circle","popularity":12.623,"poster_path":"\/bQVqd5rWrx5GbXhJNuvKy4Viz6j.jpg","original_language":"en","original_title":"The Circle","genre_ids":[18,53,878],"backdrop_path":"\/hENBbG0J4zf4fFB3OVAC50poojR.jpg","adult":false,"overview":"A young tech worker takes a job at a powerful Internet corporation, quickly rises up the company's ranks, and soon finds herself in a perilous situation concerning privacy, surveillance and freedom. She comes to learn that her decisions and actions will determine the future of humanity.","release_date":"2017-04-27"},{"vote_count":225,"id":363992,"video":false,"vote_average":6.5,"title":"The Wizard of Lies","popularity":12.107,"poster_path":"\/8k4lJ4e0hvDQtKpItXmmPdw69sO.jpg","original_language":"en","original_title":"The Wizard of Lies","genre_ids":[80,18,36,53],"backdrop_path":"\/dqtosyPcgnotoMuo8wy4xwY1Bxe.jpg","adult":false,"overview":"A look behind the scenes at Bernie Madoff's massive Ponzi scheme, how it was perpetrated on the public and the trail of destruction it left in its wake, both for the victims and Madoff's family.","release_date":"2017-05-21"},{"vote_count":156,"id":430354,"video":false,"vote_average":5.3,"title":"Bushwick","popularity":12.055,"poster_path":"\/9fGjmzxdiKWsrlY3syrm2aXeTq7.jpg","original_language":"en","original_title":"Bushwick","genre_ids":[53,28],"backdrop_path":"\/qZM7tkRU49IlKu4in8J4unlTzpX.jpg","adult":false,"overview":"When an unknown military force invades Bushwick, a Brooklyn neighborhood, young student Lucy and war veteran Stupe must rely on each other to escape and survive.","release_date":"2017-07-30"},{"vote_count":301,"id":370663,"video":false,"vote_average":6.1,"title":"Below Her Mouth","popularity":11.989,"poster_path":"\/nTGbq37hYLuNy7YgMg0gVLma0NS.jpg","original_language":"en","original_title":"Below Her Mouth","genre_ids":[18,10749],"backdrop_path":"\/okSVtwaS8DqLHGe1QQgREf2haCy.jpg","adult":false,"overview":"An unexpected affair quickly escalates into a heart-stopping reality for two women whose passionate connection changes their lives forever.","release_date":"2017-02-10"},{"vote_count":2313,"id":935,"video":false,"vote_average":8.1,"title":"Dr. Strangelove or: How I Learned to Stop Worrying and Love the Bomb","popularity":11.661,"poster_path":"\/tviJ68Wj4glQk3CPMvdvExYHxX.jpg","original_language":"en","original_title":"Dr. Strangelove or: How I Learned to Stop Worrying and Love the Bomb","genre_ids":[18,35,10752],"backdrop_path":"\/7Gr3IkGqfl00W3oWbfopYSEL6Yt.jpg","adult":false,"overview":"After the insane General Jack D. Ripper initiates a nuclear strike on the Soviet Union, a war room full of politicians, generals and a Russian diplomat all frantically try to stop the nuclear strike.","release_date":"1964-01-29"},{"vote_count":1650,"id":400928,"video":false,"vote_average":7.9,"title":"Gifted","popularity":11.403,"poster_path":"\/9Ts7Vc4wLlpI9oox9mkVUE1tBHy.jpg","original_language":"en","original_title":"Gifted","genre_ids":[18,10751,35],"backdrop_path":"\/gYtXT7fJNBRZBbBulO11DoRveLT.jpg","adult":false,"overview":"Frank, a single man raising his child prodigy niece Mary, is drawn into a custody battle with his mother.","release_date":"2017-04-12"},{"vote_count":1755,"id":340837,"video":false,"vote_average":6.2,"title":"A Cure for Wellness","popularity":11.4,"poster_path":"\/d4fXuJS3zZcAZfz2HYDtnwqtnwn.jpg","original_language":"en","original_title":"A Cure for Wellness","genre_ids":[27,9648,878,53],"backdrop_path":"\/uXx9wjfJEzLlfqB8GW67SYBrhVT.jpg","adult":false,"overview":"An ambitious young executive is sent to retrieve his company's CEO from an idyllic but mysterious \"wellness center\" at a remote location in the Swiss Alps but soon suspects that the spa's miraculous treatments are not what they seem.","release_date":"2017-02-15"},{"vote_count":916,"id":339877,"video":false,"vote_average":8.3,"title":"Loving Vincent","popularity":11.067,"poster_path":"\/qlrhwUDe7YOZujAYanK6ij2vbY5.jpg","original_language":"en","original_title":"Loving Vincent","genre_ids":[16,18,9648],"backdrop_path":"\/adFgBkl35kdI0bSrWZO2xury1JB.jpg","adult":false,"overview":"The film brings the paintings of Vincent van Gogh to life to tell his remarkable story. Every one of the 65,000 frames of the film is an oil-painting hand-painted by 125 professional oil-painters who travelled from all across the world to the Loving Vincent studios in Poland and Greece to be a part of the production. As remarkable as Vincent’s brilliant paintings are his passionate and ill-fated life and mysterious death.","release_date":"2017-06-22"}]}